inst_a,inst_b
4607182418800017408,4623589008722400332
4607182418800017408,4629809586184892654
4607182418800017408,4626263655837549346
4607182418800017408,4619152455282632119
4607182418800017408,4622840232732011525
4607182418800017408,4625843742054632367
4607182418800017408,4619643183178474289
4607182418800017408,4626412373537739040
4607182418800017408,4625939863004903864
4607182418800017408,4626174728252750903
4607182418800017408,4626412895436425937
4607182418800017408,4629824552913918734
4607182418800017408,4629789375361134531
4607182418800017408,4619042544161599439
4607182418800017408,4618441042029576645
4607182418800017408,4626186567821997015
4607182418800017408,4626376364144835497
4607182418800017408,4626444155989661456
4607182418800017408,4629671952260425374
4607182418800017408,4618793893960671392
4607182418800017408,4628078836501854126
4607182418800017408,4629214591935720232
4607182418800017408,4629830743968844612
