inst_a,inst_b
4605606158930437734,4605268388958384947
4607182418800017408,4607182418800017408
4607182418800017408,4607182418800017408
0,0
4597853313522586816,4551999548857007431
4585565140588639032,4585565140588639032
13880217531236686166,0
4603917309070173798,0
4585565140588639028,13808937177443414836
4564128006362355459,0
4564128006362355483,9223372036854775808
4590068740216009523,4585565140588639027
4607182418800017408,0
9223372036854775808,0
4603609093970675629,4604255079042226586
13830554455654793216,0
4604279917298473052,4604296963696167704
4605943928902490522,0
4607576483767412326,4607576483767412326
4590068740216009523,4590068740216009523
4549315604527719305,4532445536450414652
4601150926932620532,4597336137017884006
13799822376792548736,4587292192119089232
4589325646277493408,4611190622468377150
4590068740216009523,4592770899992431821
4616583683022153318,4616752568008179712
4594572339843380019,4585565140588639027
4541444573351451817,4526960609807446057
4539794156855747206,0
0,0
4610109758557808230,4605943928902490522
4608012215993830935,4607843339399622360
4604592849014279373,4604255079042226586
4612204636071977287,4612302800470105128
4592770899992431821,4590068740216009523
13778492843962390275,0
4586584935299471760,13809556246424658360
4607238713795359539,4607407598781385933
4600427019358961664,4600427019358961664
4555120807107614480,0
4607182418800017408,0
0,0
0,4595157603670994365
4564128006362355459,0
4602874029670955071,4603188792005781330
4607182418800017408,0
4606281698874543309,4606281698874543309
4564128006362355459,0
4597831820073689417,4598231514540618548
4601778099247172813,4601102559303067238
4612606793444952638,4612597293664488653
4607238713795359539,0
4607238713795359539,4602903999154015437
4605268388958384947,4604930618986332160
4602453639191278387,4602453639191278387
0,0
4564128006362355478,0
4587540535361289987,0
0,0
4606281698874543309,4606281698874543309
4607182418800017408,4607182418800017408
4608758678669597082,4604255079042226586
0,0
13812449985152763840,4613300277418823516
4605943928902490522,4606281698874543309
4594335900862943068,4594234569871327232
4610278643543834624,4609816320894587372
4602903999154015436,4602903999154015437
4610658634762394009,4610848630371673702
4602183423213636158,4600764789331014452
13787500043217131286,0
0,0
4603469763857203855,4603938419693427098
13830554455654793216,4380501237555702142
4590068740216009520,4585565140588639024
13813305669081964208,4608378687451037696
0,4555120807107614475
0,4610725617243609305
4637415734161326319,4638031935899398890
4533669026653042314,4529565833527538078
4614665079212149308,4614655579431685324
4602735114167989043,4602031426726212403
4607182418800017408,4371494038300961314
4607407598781385933,4607576483767412326
9223372036854775808,9223372036854775808
4609727656276923514,4609265333627676262
4592770899992431821,0
4590068740216009523,4585565140588639027
4592770899992431816,13808937177443414832
4600055472389703599,4600131470633415475
4604255079042226586,4603917309070173798
4613977928425254421,4614161590847558123
4590068740216009523,4585565140588639027
0,0
4603913086945523138,4603875087823667200
4601102559303067238,0
4606619468846596096,4606619468846596096
4599075939470750514,4599075939470750515
4585565140588639008,4585565140588639008
4612765123119352380,4612755623338888397
4605268388958384947,4601102559303067238
4603579539098121011,4602903999154015437
4631935517372011528,4627256193341826437
4107282860161892352,13787500043217131281
4594572339843380019,4595923419731591168
4597274499619802317,4598400399526644941
0,4564128006362355462
4580521109005984064,4601778099247172812
4610785298501913805,4606281698874543309
4607182418800017408,4607182418800017408
4590744280160115097,4586443342515976274
4568278882061903360,4577286537906563456
4593074892967279360,4612248968380809216
13778492843962390275,0
4607407598781385933,4607407598781385933
0,0
0,0
0,0
4585565140588639027,0
4607143012303277916,4606991015815854161
4612112804860825437,4612103305080361452
4606957238818648883,4606619468846596096
4608729351064073557,4607182418800017408
4607407598781385932,4606957238818648883
4649072741097908174,4557243186600738682
0,0
0,0
4602453639191278387,4601778099247172813
4598400399526644941,0
4604930618986332160,4604592849014279373
4605268261308626281,4605268769812101012
4607182589702371024,4607182418800017408
4555120807107614476,0
4547776723188429548,4562125251907552783
4531581071380778134,4497018977343166823
4585632694583049600,4612147637389193380
4604592849014279373,4604255079042226586
4511075789693785193,13750112837190437377
4590068740216009523,4590068740216009523
4604930618986332160,0
0,0
4616203164038012601,4616198414147780608
4564128006362355456,4594437231854558904
0,0
0,4555120807107614467
4590068740216009523,4592770899992431821
4606619468846596096,0
4591827201927652511,4587601959546483402
4564128006362355478,0
0,0
4615352229999044198,4615162234389764505
4475853792249226014,4564066599153020291
4602453639191278387,4601778099247172813
0,0
4585565140588639032,13808937177443414840
4585565140588639032,4585565140588639032
4607182418800017408,0
9223372036854775808,0
4602903999154015437,4603241769126068224
4599075939470750515,4599751479414856090
4612147637389193380,4612233135413369241
4595923419731591167,4595923419731591168
4606619468846596096,4606281698874543309
0,0
4603307004903596745,4610941540869738252
13806593699690350496,4592753107824976443
4603579539098121011,4603579539098121011
4592770899992431821,4590068740216009523
4607182418800017408,4607182418800017408
4585565140588639024,4585565140588639024
0,0
4600427019358961664,0
0,0
4595923419731591168,0
4601778099247172813,0
13816852253788518528,4613198946427207680
4597274499619802317,4594572339843380019
0,0
0,0
4600427019358961664,4600427019358961664
4605606158930437734,4605943928902490522
4606619468846596096,4606957238818648883
0,0
4593930576896479724,4594031907888095560
4611291953459992986,4606957238818648883
13800200194166315776,4613008950817927988
4606231033378735390,4606383029866159145
4555120807107614447,0
4596109193216220201,4596261189703643956
4603245113859829461,4536356565305805254
0,4555120807107614467
0,0
13808937177443414832,13808937177443414832
4564128006362355483,0
4606957238818648883,0
4607407598781385933,4602903999154015437
4598282180036426467,4598358178280138343
0,9223372036854775808
4607466708526495171,4607378043908831314
4606957238818648883,4607238713795359539
4589629639252340896,4614098258977798226
4564128006362355483,0
4641474538227906026,13841936677915104041
4605129058844913173,4605167057966769112
4604930618986332160,4604592849014279373
13773159634931674090,4550647917515371798
0,0
4564128006362355459,0
4610616413515887412,4606281698874543309
0,0
4607182418800017408,0
4605268388958384947,4604592849014279373
13830554455654793216,0
4600473417221299554,4544758151596165165
4609923985073179197,4609784654959707423
4604592849014279373,0
0,0
4607182418800017408,4607182418800017408
4606957238818648883,4606619468846596096
13830554455654793216,0
4589629639252340904,4605876374908079964
4613832855490128299,4607182418800017408
4592770899992431821,4590068740216009523
4574756501482949888,4606383029866159145
0,0
4595923419731591168,4594572339843380019
4604219608051275797,4549195003915247616
4609325141270043737,4607182418800017408
4601293064813562892,4602145444373101798
4613566271271815087,4613388942036487373
0,0
0,0
4601778099247172812,4600427019358961664
4604255079042226586,4604255079042226586
0,0
13778492843962390275,0
4610291309917786604,4610126647056410870
4600427019358961664,0
4602053580284613762,4600647481774354168
4603086094124014337,4602971287955655483
13814014986023275069,4595045217804253921
4590076629860419680,4585618456473734408
4603220552110201968,4610941540869738252
4592770899992431822,13808937177443414836
4589920265202957189,4590316724754471746
4602453639191278387,4602453639191278387
4607182418800017408,9223372036854775808
13830554455654793216,0
4588267300365061316,4599447486440008581
4604128415302706792,4603748424084147404
4555120807107614470,0
9223372036854775808,0
4599827477658567966,4599903475902279844
4564128005907354596,4341448151057584356
0,0
0,0
0,4564128006362355468
0,0
0,0
4607182418800017408,4607182418800017408
0,0
4607182418800017408,4607182418800017408
4610436973218234368,4610278643543834624
4607407598781385933,4607238713795359539
4592770899992431821,4590068740216009523
4605268388958384947,4604930618986332160
4606281698874543309,4606957238818648883
4602804615133802217,4550377015438373351
4555120807107614469,0
4616668125515166515,4616668125515166515
4606619468846596096,4606619468846596096
4583709625112260471,13796746530586215899
4594572339843380019,4590068740216009523
4616668125515166515,4616668125515166515
4607182418800017408,4607182418800017408
4602462083440579706,4602386085196867828
13330654897016668160,13787500043217131281
4604255079042226586,4603917309525786945
4607300262804509190,13814936742992041425
9223372036854775808,0
4601778099247172813,4598400399526644941
4606957238818648883,0
4600427019358961664,0
4539794156855747197,0
4539794156855747212,0
4594572339843380019,4592770899992431821
4607182418800017408,9223372036854775808
4585565140588639024,4585565140588639024
4555120807107614476,0
4609923985073179197,4610063315186650971
4607238713795359539,4606957238818648883
4604930618986332160,4605268388958384947
13809815379370752080,4600764789331014452
4611629723432045772,4607238713795359539
0,0
4607182418800017408,4371494038300961740
13803332849995154336,4578840577822420160
13808937177443414832,13808937177443414832
4605943928902490522,4605943928902490522
4599077203459753878,4597297849983634368
4585565140588639028,13808937177443414836
4606957238818648883,0
4592770899992431816,13808937177443414832
0,4585565140588639040
0,0
4606231033378735390,4607143012303277916
4601102559303067238,4601102559303067238
4599751479414856090,4599751479414856090
13801821490032169451,0
4612586942741356938,4612251131242972915
13830554455654793216,0
4594572339843380019,4594572339843380019
4599075939470750516,4600427019358961664
4607407598781385933,4607407598781385933
4592770899992431816,13808937177443414832
4604592849014279373,4604255079042226586
13778196222841604700,4543819110823946246
4603083166334754875,4603174200805332455
13811234013253373824,4614528915692165529
4585565140588639028,4585565140588639028
0,9223372036854775808
4597274499619802317,4592770899992431821
4537850978927038350,4502992342788706008
4606619468846596096,4606281698874543309
4511135783606986782,4514954371760671733
4576017509378613568,4594437231854558904
4600427019358961664,4600427019358961664
0,0
4606957238818648883,4602453639191278387
4607536373583231058,4607238713795359539
0,9223372036854775808
4585565140588639024,13808937177443414832
13778492843962390289,0
4605943928902490522,0
9223372036854775808,0
4606619468846596096,0
4595923419731591168,4592770899992431821
4602453639191278387,4601778099247172813
4601778099247172813,0
4613031116972343953,4613040616752807937
4607238713795359539,0
4606957239557401958,4606619573264175842
4595985551206582009,4595857348257229558
4590068740216009523,4590068740216009523
4605943928902490522,4605606158930437734
0,0
0,0
13787626795966462528,4587524363573902801
4607182418800017408,4607182418800017408
4610709300258201928,4610728299819129898
4596456944968042188,4591841499859977613
4585565140588639027,0
4598636838507081892,4599346155448392745
4597274499619802317,4595923419731591168
4585565140588639024,4585565140588639024
4612875953891432202,4612692291469128499
0,0
4602453639191278388,4601102559303067238
4592310248951413049,0
4585565140588639024,4585565140588639024
4602903999154015437,4598400399526644941
0,0
4585565140588639024,13808937177443414832
4603579539098121011,4603241769126068224
4605876374908079964,4605585048307184435
4599988167362449522,4599467487730578118
4607182418800017408,4607182418800017408
4585565140588639032,13808937177443414840
4599075939470750515,0
4594572339843380019,4592770899992431821
0,0
4606281698874543309,4601778099247172813
4601778099247172813,4598400399526644941
4601778099247172814,4601778099247172813
4607745368753438720,4607576483767412326
4607948030736670392,4607846699745054556
4607745368753438720,4607576483767412326
4605943928902490522,4605943928902490522
4590136294210420079,4589832301235572571
0,0
4585546554567534280,4585565004191058944
4594741224829406413,4593176223958895165
4600427019358961664,4595923419731591168
4602903999154015437,4597274499619802317
0,0
4612546628168680735,4612391465087768986
4555120807107614471,0
4607238713795359539,4606957238818648883
4603307004903596745,4610941540869738252
4607238713795359539,4606957238818648883
4534100075667041408,4526591496181741436
13787500043217131267,9223372036854775808
4594337951682990824,4589632334612120270
4588267320562351648,4608936292129164365
4612096971893385462,4612188803104537314
4605943928902490522,0
13813710993048427584,4608556016686365409
4606281698874543309,4601778099247172813
4604255079042226586,4599075939470750515
4658488700961768895,4660564415164330808
4608758678669597082,4604255079042226586
4594572339843380019,4590068740216009523
4600382137820437588,4600841149100794446
0,0
4600308487222054677,4596464826095837272
4603241769126068224,4603579539098121011
4607182418800017408,4607182418800017408
4659934240276921910,4661020935299664339
4597274499619802317,4595923419731591168
4585565140588639024,4585565140588639024
0,0
0,0
13815028295939433408,4610126647056410870
0,4564128006362355468
4602903999154015437,4602903999154015437
4607182418800017408,4607182418800017408
4589528308260725088,4612248968380809216
4604255079042226586,4604255079042226586
4602487416188483665,4601018116810054041
4652266408789146115,4592150598615620008
0,0
4599075939470750515,0
4517880092552534635,13758711715518225780
0,0
4602310086953155953,4603039107142836552
9223372036854775808,9223372036854775808
4607182418800017408,0
13686613192201415552,4555120750911639679
0,0
4592770899992431840,13808937177443414848
4603241769126068224,4603241769126068224
0,0
13805919765693076576,4604660403008689930
0,4555120807107614470
0,0
4600427019358961664,4599751479414856090
4614034927108038327,4613743600507142800
4616212663818476584,4616217413708708577
4595923419731591168,4595923419731591168
4606573025475438838,4606535026353582899
0,0
0,0
4605268388958384947,4604930618986332160
4607182418800017408,0
0,4555120807107614467
4590068740216009523,4585565140588639027
4539794156855747192,0
0,0
4599751479414856090,4599751479414856090
4590068740216009523,13808937177443414835
4596761610857931836,4598815729101712454
0,0
0,4564128006362355459
4606619468846596096,4606619468846596096
4601778099247172813,4601102559303067238
0,0
4599075939470750515,4599075939470750515
4590068740216009520,4585565140588639024
4585565140588639026,4585565140588639027
4599146617877488257,4598611496544390895
13778492843962390275,0
4601778099247172813,4601778099247172813
4630902331800889394,4632662882848259401
4603579539098121011,4603241769126068224
4606619468846596096,0
0,0
13778492843962390275,0
4607238713795359539,0
4614576414594485452,4614566914814021467
4614630246683781366,4614772743390741136
4607182418800017408,4607182418800017408
0,0
4603579539098121011,4603241769126068224
0,0
13778492843962390313,0
13808599407471362048,4612856954330504233
4617009375936085332,4628795136833049637
4611089291476761313,4611038625980953394
4605268388958384947,4604930618986332160
4602903999154015436,4601778099247172813
4607745368753438720,4607576483767412326
0,0
4564128006362355459,0
4611989771614631159,4607182418800017408
4560495623765472029,4549804930352068684
0,4564128006362355480
9223372036854775808,9223372036854775808
4607182418800017408,0
4607182418800017408,0
4595923419731591168,4597274499619802317
4600468534522279567,4599919832626699046
